<?xml version="1.0" encoding="UTF-8"?>
<!DOCTYPE svg PUBLIC "-//W3C//DTD SVG 1.1//EN" "http://www.w3.org/Graphics/SVG/1.1/DTD/svg11.dtd">
<svg version="1.2" width="10.02mm" height="10.02mm" viewBox="15001 11001 1002 1002" preserveAspectRatio="xMidYMid" fill-rule="evenodd" stroke-width="28.222" stroke-linejoin="round" xmlns="http://www.w3.org/2000/svg" xmlns:ooo="http://xml.openoffice.org/svg/export" xmlns:xlink="http://www.w3.org/1999/xlink" xmlns:presentation="http://sun.com/xmlns/staroffice/presentation" xmlns:smil="http://www.w3.org/2001/SMIL20/" xmlns:anim="urn:oasis:names:tc:opendocument:xmlns:animation:1.0" xml:space="preserve">
 <defs class="EmbeddedBulletChars">
  <g id="bullet-char-template-57356" transform="scale(0.00048828125,-0.00048828125)">
   <path d="M 580,1141 L 1163,571 580,0 -4,571 580,1141 Z"/>
  </g>
  <g id="bullet-char-template-57354" transform="scale(0.00048828125,-0.00048828125)">
   <path d="M 8,1128 L 1137,1128 1137,0 8,0 8,1128 Z"/>
  </g>
  <g id="bullet-char-template-10146" transform="scale(0.00048828125,-0.00048828125)">
   <path d="M 174,0 L 602,739 174,1481 1456,739 174,0 Z M 1358,739 L 309,1346 659,739 1358,739 Z"/>
  </g>
  <g id="bullet-char-template-10132" transform="scale(0.00048828125,-0.00048828125)">
   <path d="M 2015,739 L 1276,0 717,0 1260,543 174,543 174,936 1260,936 717,1481 1274,1481 2015,739 Z"/>
  </g>
  <g id="bullet-char-template-10007" transform="scale(0.00048828125,-0.00048828125)">
   <path d="M 0,-2 C -7,14 -16,27 -25,37 L 356,567 C 262,823 215,952 215,954 215,979 228,992 255,992 264,992 276,990 289,987 310,991 331,999 354,1012 L 381,999 492,748 772,1049 836,1024 860,1049 C 881,1039 901,1025 922,1006 886,937 835,863 770,784 769,783 710,716 594,584 L 774,223 C 774,196 753,168 711,139 L 727,119 C 717,90 699,76 672,76 641,76 570,178 457,381 L 164,-76 C 142,-110 111,-127 72,-127 30,-127 9,-110 8,-76 1,-67 -2,-52 -2,-32 -2,-23 -1,-13 0,-2 Z"/>
  </g>
  <g id="bullet-char-template-10004" transform="scale(0.00048828125,-0.00048828125)">
   <path d="M 285,-33 C 182,-33 111,30 74,156 52,228 41,333 41,471 41,549 55,616 82,672 116,743 169,778 240,778 293,778 328,747 346,684 L 369,508 C 377,444 397,411 428,410 L 1163,1116 C 1174,1127 1196,1133 1229,1133 1271,1133 1292,1118 1292,1087 L 1292,965 C 1292,929 1282,901 1262,881 L 442,47 C 390,-6 338,-33 285,-33 Z"/>
  </g>
  <g id="bullet-char-template-9679" transform="scale(0.00048828125,-0.00048828125)">
   <path d="M 813,0 C 632,0 489,54 383,161 276,268 223,411 223,592 223,773 276,916 383,1023 489,1130 632,1184 813,1184 992,1184 1136,1130 1245,1023 1353,916 1407,772 1407,592 1407,412 1353,268 1245,161 1136,54 992,0 813,0 Z"/>
  </g>
  <g id="bullet-char-template-8226" transform="scale(0.00048828125,-0.00048828125)">
   <path d="M 346,457 C 273,457 209,483 155,535 101,586 74,649 74,723 74,796 101,859 155,911 209,963 273,989 346,989 419,989 480,963 531,910 582,859 608,796 608,723 608,648 583,586 532,535 482,483 420,457 346,457 Z"/>
  </g>
  <g id="bullet-char-template-8211" transform="scale(0.00048828125,-0.00048828125)">
   <path d="M -4,459 L 1135,459 1135,606 -4,606 -4,459 Z"/>
  </g>
  <g id="bullet-char-template-61548" transform="scale(0.00048828125,-0.00048828125)">
   <path d="M 173,740 C 173,903 231,1043 346,1159 462,1274 601,1332 765,1332 928,1332 1067,1274 1183,1159 1299,1043 1357,903 1357,740 1357,577 1299,437 1183,322 1067,206 928,148 765,148 601,148 462,206 346,322 231,437 173,577 173,740 Z"/>
  </g>
 </defs>
 <g class="Page">
  <g class="com.sun.star.drawing.CustomShape">
   <g id="id3">
    <rect class="BoundingBox" stroke="none" fill="none" x="15001" y="11001" width="1002" height="1002"/>
    <path fill="rgb(28,28,28)" stroke="none" d="M 16002,11502 C 16002,11589 15979,11676 15935,11752 15891,11828 15828,11891 15752,11935 15676,11979 15589,12002 15502,12002 15414,12002 15327,11979 15251,11935 15175,11891 15112,11828 15068,11752 15024,11676 15001,11589 15001,11502 15001,11414 15024,11327 15068,11251 15112,11175 15175,11112 15251,11068 15327,11024 15414,11001 15502,11001 15589,11001 15676,11024 15752,11068 15828,11112 15891,11175 15935,11251 15979,11327 16002,11414 16002,11502 L 16002,11502 Z"/>
   </g>
  </g>
  <g class="com.sun.star.drawing.CustomShape">
   <g id="id4">
    <rect class="BoundingBox" stroke="none" fill="none" x="15150" y="11150" width="701" height="701"/>
   </g>
  </g>
  <g class="com.sun.star.drawing.CustomShape">
   <g id="id5">
    <rect class="BoundingBox" stroke="none" fill="none" x="15535" y="11219" width="30" height="597"/>
    <path fill="rgb(250,250,250)" stroke="none" d="M 15549,11219 L 15550,11219 C 15547,11219 15544,11220 15542,11221 15540,11222 15538,11224 15537,11226 15536,11228 15535,11231 15535,11234 L 15535,11800 15535,11801 C 15535,11803 15536,11806 15537,11808 15538,11810 15540,11812 15542,11813 15544,11814 15547,11815 15550,11815 L 15549,11815 15550,11815 C 15552,11815 15555,11814 15557,11813 15559,11812 15561,11810 15562,11808 15563,11806 15564,11803 15564,11801 L 15563,11233 15564,11234 15564,11234 C 15564,11231 15563,11228 15562,11226 15561,11224 15559,11222 15557,11221 15555,11220 15552,11219 15550,11219 L 15549,11219 Z"/>
   </g>
  </g>
  <g class="com.sun.star.drawing.CustomShape">
   <g id="id6">
    <rect class="BoundingBox" stroke="none" fill="none" x="15570" y="11219" width="226" height="135"/>
    <path fill="rgb(250,250,250)" stroke="none" d="M 15585,11219 L 15585,11219 C 15583,11219 15580,11220 15578,11221 15575,11222 15573,11224 15572,11227 15571,11229 15570,11232 15570,11234 L 15570,11337 15570,11338 C 15570,11340 15571,11343 15572,11345 15573,11348 15575,11350 15578,11351 15580,11352 15583,11353 15585,11353 L 15779,11353 15780,11353 C 15782,11353 15785,11352 15787,11351 15790,11350 15792,11348 15793,11345 15794,11343 15795,11340 15795,11338 L 15795,11234 15795,11234 15795,11234 C 15795,11232 15794,11229 15793,11227 15792,11224 15790,11222 15787,11221 15785,11220 15782,11219 15780,11219 L 15585,11219 Z"/>
   </g>
  </g>
  <g class="com.sun.star.drawing.ClosedBezierShape">
   <g id="id7">
    <rect class="BoundingBox" stroke="none" fill="none" x="15290" y="11206" width="148" height="148"/>
    <path fill="rgb(250,250,250)" stroke="none" d="M 15415,11297 C 15420,11291 15423,11284 15423,11276 15423,11269 15420,11261 15415,11255 15410,11249 15403,11243 15393,11239 15385,11236 15374,11234 15364,11234 15353,11234 15343,11236 15334,11239 15325,11243 15317,11249 15312,11255 15307,11261 15304,11269 15304,11276 15304,11284 15307,11291 15312,11297 15317,11303 15325,11309 15334,11313 15343,11316 15353,11318 15364,11318 15374,11318 15385,11316 15393,11313 15403,11309 15410,11303 15415,11297 Z M 15427,11316 C 15421,11328 15412,11337 15400,11343 15390,11349 15376,11353 15364,11353 15351,11353 15337,11349 15327,11343 15316,11337 15306,11328 15300,11316 15294,11306 15290,11292 15290,11279 15290,11267 15294,11253 15300,11243 15306,11232 15316,11222 15327,11216 15337,11210 15351,11206 15364,11206 15376,11206 15390,11210 15400,11216 15412,11222 15421,11232 15427,11243 15434,11253 15437,11267 15437,11279 15437,11292 15434,11306 15427,11316 Z"/>
   </g>
  </g>
  <g class="com.sun.star.drawing.ClosedBezierShape">
   <g id="id8">
    <rect class="BoundingBox" stroke="none" fill="none" x="15186" y="11355" width="364" height="455"/>
    <path fill="rgb(250,250,250)" stroke="none" d="M 15318,11358 C 15332,11367 15348,11371 15364,11371 15380,11371 15395,11367 15409,11358 15411,11357 15413,11357 15414,11356 15415,11356 15416,11357 15417,11357 15420,11358 15423,11361 15426,11364 L 15472,11430 15528,11430 C 15532,11430 15535,11431 15539,11433 15542,11434 15545,11438 15546,11441 15549,11444 15549,11448 15549,11451 15549,11455 15549,11459 15546,11462 15545,11465 15542,11468 15539,11469 15535,11471 15532,11472 15528,11472 L 15458,11472 C 15455,11472 15451,11471 15448,11469 15444,11468 15441,11465 15441,11462 15440,11461 15439,11460 15439,11459 15438,11458 15437,11457 15437,11456 L 15430,11448 15430,11578 15430,11630 15430,11781 C 15430,11785 15429,11790 15427,11795 15424,11798 15420,11802 15416,11805 15413,11807 15407,11809 15402,11809 15398,11809 15392,11807 15388,11805 15385,11802 15381,11798 15378,11795 15376,11790 15374,11785 15374,11781 L 15374,11780 15374,11662 15353,11662 15353,11781 C 15353,11785 15352,11790 15350,11795 15347,11798 15343,11802 15339,11805 15336,11807 15330,11809 15325,11809 15321,11809 15315,11807 15311,11805 15308,11802 15304,11798 15301,11795 15299,11790 15297,11785 15297,11781 L 15297,11780 15297,11630 15297,11571 15297,11426 15222,11487 C 15219,11490 15216,11490 15211,11491 15208,11492 15204,11491 15201,11490 15197,11489 15194,11487 15192,11483 15189,11481 15188,11477 15187,11473 15187,11469 15187,11466 15189,11462 15189,11459 15192,11455 15195,11454 L 15305,11364 C 15308,11362 15310,11359 15314,11357 15314,11357 15315,11357 15315,11357 15316,11357 15317,11357 15318,11358 Z"/>
   </g>
  </g>
  <g class="com.sun.star.drawing.ClosedBezierShape">
   <g id="id9">
    <rect class="BoundingBox" stroke="none" fill="none" x="15262" y="11326" width="204" height="266"/>
    <path fill="rgb(250,250,250)" stroke="none" d="M 15426,11356 C 15424,11354 15421,11353 15420,11351 15428,11344 15435,11336 15442,11327 15444,11328 15446,11329 15448,11329 15453,11332 15457,11337 15461,11343 15463,11347 15465,11353 15465,11359 L 15465,11406 15435,11364 C 15432,11360 15429,11357 15426,11356 Z M 15306,11350 C 15304,11350 15303,11351 15302,11352 L 15262,11385 15262,11359 C 15262,11353 15264,11347 15266,11343 15270,11337 15274,11332 15279,11329 15281,11329 15283,11328 15286,11327 15291,11336 15298,11343 15306,11350 Z M 15290,11444 L 15290,11591 C 15286,11590 15282,11588 15279,11587 15274,11584 15270,11580 15266,11574 15264,11569 15262,11563 15262,11557 L 15262,11467 15290,11444 Z M 15437,11469 C 15439,11472 15441,11474 15444,11476 15448,11478 15453,11479 15458,11479 L 15465,11479 15465,11557 C 15465,11563 15463,11569 15461,11574 15457,11580 15453,11584 15448,11587 15445,11588 15441,11590 15437,11591 L 15437,11469 Z"/>
   </g>
  </g>
 </g>
</svg>