<?xml version="1.0" encoding="UTF-8"?>
<!DOCTYPE svg PUBLIC "-//W3C//DTD SVG 1.1//EN" "http://www.w3.org/Graphics/SVG/1.1/DTD/svg11.dtd">
<svg version="1.2" width="7.41mm" height="24.01mm" viewBox="2000 7000 741 2401" preserveAspectRatio="xMidYMid" fill-rule="evenodd" stroke-width="28.222" stroke-linejoin="round" xmlns="http://www.w3.org/2000/svg" xmlns:ooo="http://xml.openoffice.org/svg/export" xmlns:xlink="http://www.w3.org/1999/xlink" xmlns:presentation="http://sun.com/xmlns/staroffice/presentation" xmlns:smil="http://www.w3.org/2001/SMIL20/" xmlns:anim="urn:oasis:names:tc:opendocument:xmlns:animation:1.0" xml:space="preserve">
 <defs>
  <font id="EmbeddedFont_1" horiz-adv-x="2048">
   <font-face font-family="Cantarell embedded" units-per-em="2048" font-weight="normal" font-style="normal" ascent="2011" descent="450"/>
   <missing-glyph horiz-adv-x="2048" d="M 0,0 L 2047,0 2047,2047 0,2047 0,0 Z"/>
   <glyph unicode="u" horiz-adv-x="848" d="M 510,-20 C 619,-20 729,18 821,86 L 858,0 973,0 973,987 809,987 809,213 C 737,156 647,123 559,123 406,123 317,213 317,373 L 317,987 154,987 154,340 C 154,121 299,-20 510,-20 Z"/>
   <glyph unicode="s" horiz-adv-x="795" d="M 469,-20 C 713,-20 862,94 862,276 862,639 272,504 272,727 272,813 365,868 512,868 596,868 694,850 778,821 L 817,954 C 733,989 633,1008 528,1008 272,1008 109,895 109,709 109,354 696,502 696,260 696,170 616,119 481,119 377,119 238,147 133,193 L 94,59 C 207,8 344,-20 469,-20 Z"/>
   <glyph unicode="e" horiz-adv-x="874" d="M 614,-20 C 727,-20 850,6 938,53 L 901,172 C 825,135 729,113 643,113 434,113 303,238 279,449 L 967,449 C 971,479 975,551 975,590 975,838 811,1008 567,1008 293,1008 107,793 107,489 107,174 301,-20 614,-20 Z M 276,571 C 291,764 389,868 555,868 723,868 821,760 821,571 L 276,571 Z"/>
   <glyph unicode="c" horiz-adv-x="795" d="M 557,-20 C 676,-20 799,8 881,57 L 844,176 C 762,137 672,115 596,115 391,115 274,258 274,498 274,735 389,864 594,864 672,864 760,846 842,809 L 881,942 C 791,985 694,1008 596,1008 303,1008 107,791 107,465 107,160 274,-20 557,-20 Z"/>
   <glyph unicode="S" horiz-adv-x="1006" d="M 539,-20 C 856,-20 1063,141 1063,391 1063,895 266,694 266,1061 266,1210 387,1292 604,1292 725,1292 856,1268 958,1225 L 1010,1358 C 889,1411 752,1440 616,1440 299,1440 92,1282 92,1034 92,547 887,729 887,367 887,223 764,131 549,131 420,131 260,166 121,223 L 70,90 C 227,18 387,-20 539,-20 Z"/>
  </font>
 </defs>
 <defs class="EmbeddedBulletChars">
  <g id="bullet-char-template-57356" transform="scale(0.00048828125,-0.00048828125)">
   <path d="M 580,1141 L 1163,571 580,0 -4,571 580,1141 Z"/>
  </g>
  <g id="bullet-char-template-57354" transform="scale(0.00048828125,-0.00048828125)">
   <path d="M 8,1128 L 1137,1128 1137,0 8,0 8,1128 Z"/>
  </g>
  <g id="bullet-char-template-10146" transform="scale(0.00048828125,-0.00048828125)">
   <path d="M 174,0 L 602,739 174,1481 1456,739 174,0 Z M 1358,739 L 309,1346 659,739 1358,739 Z"/>
  </g>
  <g id="bullet-char-template-10132" transform="scale(0.00048828125,-0.00048828125)">
   <path d="M 2015,739 L 1276,0 717,0 1260,543 174,543 174,936 1260,936 717,1481 1274,1481 2015,739 Z"/>
  </g>
  <g id="bullet-char-template-10007" transform="scale(0.00048828125,-0.00048828125)">
   <path d="M 0,-2 C -7,14 -16,27 -25,37 L 356,567 C 262,823 215,952 215,954 215,979 228,992 255,992 264,992 276,990 289,987 310,991 331,999 354,1012 L 381,999 492,748 772,1049 836,1024 860,1049 C 881,1039 901,1025 922,1006 886,937 835,863 770,784 769,783 710,716 594,584 L 774,223 C 774,196 753,168 711,139 L 727,119 C 717,90 699,76 672,76 641,76 570,178 457,381 L 164,-76 C 142,-110 111,-127 72,-127 30,-127 9,-110 8,-76 1,-67 -2,-52 -2,-32 -2,-23 -1,-13 0,-2 Z"/>
  </g>
  <g id="bullet-char-template-10004" transform="scale(0.00048828125,-0.00048828125)">
   <path d="M 285,-33 C 182,-33 111,30 74,156 52,228 41,333 41,471 41,549 55,616 82,672 116,743 169,778 240,778 293,778 328,747 346,684 L 369,508 C 377,444 397,411 428,410 L 1163,1116 C 1174,1127 1196,1133 1229,1133 1271,1133 1292,1118 1292,1087 L 1292,965 C 1292,929 1282,901 1262,881 L 442,47 C 390,-6 338,-33 285,-33 Z"/>
  </g>
  <g id="bullet-char-template-9679" transform="scale(0.00048828125,-0.00048828125)">
   <path d="M 813,0 C 632,0 489,54 383,161 276,268 223,411 223,592 223,773 276,916 383,1023 489,1130 632,1184 813,1184 992,1184 1136,1130 1245,1023 1353,916 1407,772 1407,592 1407,412 1353,268 1245,161 1136,54 992,0 813,0 Z"/>
  </g>
  <g id="bullet-char-template-8226" transform="scale(0.00048828125,-0.00048828125)">
   <path d="M 346,457 C 273,457 209,483 155,535 101,586 74,649 74,723 74,796 101,859 155,911 209,963 273,989 346,989 419,989 480,963 531,910 582,859 608,796 608,723 608,648 583,586 532,535 482,483 420,457 346,457 Z"/>
  </g>
  <g id="bullet-char-template-8211" transform="scale(0.00048828125,-0.00048828125)">
   <path d="M -4,459 L 1135,459 1135,606 -4,606 -4,459 Z"/>
  </g>
  <g id="bullet-char-template-61548" transform="scale(0.00048828125,-0.00048828125)">
   <path d="M 173,740 C 173,903 231,1043 346,1159 462,1274 601,1332 765,1332 928,1332 1067,1274 1183,1159 1299,1043 1357,903 1357,740 1357,577 1299,437 1183,322 1067,206 928,148 765,148 601,148 462,206 346,322 231,437 173,577 173,740 Z"/>
  </g>
 </defs>
 <g class="Page">
  <g class="com.sun.star.drawing.CustomShape">
   <g id="id3">
    <rect class="BoundingBox" stroke="none" fill="none" x="2000" y="7000" width="741" height="2401"/>
    <path fill="rgb(0,171,99)" stroke="none" d="M 2370,9400 L 2000,9400 2000,7000 2740,7000 2740,9400 2370,9400 Z"/>
   </g>
  </g>
  <g class="TextShape">
   <g id="id4">
    <rect class="BoundingBox" stroke="none" fill="none" x="2000" y="7000" width="741" height="2401"/>
    <text class="SVGTextShape" transform="rotate(-90 2518 8883)"><tspan class="TextParagraph" font-family="Cantarell" font-size="388px" font-weight="400"><tspan class="TextPosition" x="2518" y="8883"><tspan fill="rgb(250,250,250)" stroke="none" style="white-space: pre">Success</tspan></tspan></tspan></text>
   </g>
  </g>
 </g>
</svg>