<?xml version="1.0" encoding="UTF-8"?>
<!DOCTYPE svg PUBLIC "-//W3C//DTD SVG 1.1//EN" "http://www.w3.org/Graphics/SVG/1.1/DTD/svg11.dtd">
<svg version="1.2" width="7.41mm" height="24.01mm" viewBox="12000 7005 741 2401" preserveAspectRatio="xMidYMid" fill-rule="evenodd" stroke-width="28.222" stroke-linejoin="round" xmlns="http://www.w3.org/2000/svg" xmlns:ooo="http://xml.openoffice.org/svg/export" xmlns:xlink="http://www.w3.org/1999/xlink" xmlns:presentation="http://sun.com/xmlns/staroffice/presentation" xmlns:smil="http://www.w3.org/2001/SMIL20/" xmlns:anim="urn:oasis:names:tc:opendocument:xmlns:animation:1.0" xml:space="preserve">
 <defs>
  <font id="EmbeddedFont_1" horiz-adv-x="2048">
   <font-face font-family="Cantarell embedded" units-per-em="2048" font-weight="normal" font-style="normal" ascent="2011" descent="450"/>
   <missing-glyph horiz-adv-x="2048" d="M 0,0 L 2047,0 2047,2047 0,2047 0,0 Z"/>
   <glyph unicode="o" horiz-adv-x="953" d="M 567,-20 C 858,-20 1055,190 1055,506 1055,811 872,1008 592,1008 301,1008 107,799 107,483 107,178 287,-20 567,-20 Z M 590,123 C 399,123 270,276 270,504 270,723 387,864 569,864 760,864 891,709 891,483 891,266 772,123 590,123 Z"/>
   <glyph unicode="l" horiz-adv-x="398" d="M 393,-12 C 446,-12 510,0 549,20 L 512,135 C 487,125 465,119 440,119 371,119 334,166 334,242 L 334,1513 170,1513 170,221 C 170,80 258,-12 393,-12 Z"/>
   <glyph unicode="d" horiz-adv-x="900" d="M 547,-20 C 666,-20 766,23 842,96 L 883,0 997,0 997,1513 834,1513 834,920 C 764,977 674,1008 569,1008 291,1008 107,799 107,485 107,182 283,-20 547,-20 Z M 834,236 C 778,164 694,123 594,123 397,123 270,276 270,504 270,721 385,864 575,864 686,864 774,819 834,741 L 834,236 Z"/>
   <glyph unicode="H" horiz-adv-x="1112" d="M 188,0 L 358,0 358,662 1118,662 1118,0 1288,0 1288,1421 1118,1421 1118,809 358,809 358,1421 188,1421 188,0 Z"/>
  </font>
 </defs>
 <defs class="EmbeddedBulletChars">
  <g id="bullet-char-template-57356" transform="scale(0.00048828125,-0.00048828125)">
   <path d="M 580,1141 L 1163,571 580,0 -4,571 580,1141 Z"/>
  </g>
  <g id="bullet-char-template-57354" transform="scale(0.00048828125,-0.00048828125)">
   <path d="M 8,1128 L 1137,1128 1137,0 8,0 8,1128 Z"/>
  </g>
  <g id="bullet-char-template-10146" transform="scale(0.00048828125,-0.00048828125)">
   <path d="M 174,0 L 602,739 174,1481 1456,739 174,0 Z M 1358,739 L 309,1346 659,739 1358,739 Z"/>
  </g>
  <g id="bullet-char-template-10132" transform="scale(0.00048828125,-0.00048828125)">
   <path d="M 2015,739 L 1276,0 717,0 1260,543 174,543 174,936 1260,936 717,1481 1274,1481 2015,739 Z"/>
  </g>
  <g id="bullet-char-template-10007" transform="scale(0.00048828125,-0.00048828125)">
   <path d="M 0,-2 C -7,14 -16,27 -25,37 L 356,567 C 262,823 215,952 215,954 215,979 228,992 255,992 264,992 276,990 289,987 310,991 331,999 354,1012 L 381,999 492,748 772,1049 836,1024 860,1049 C 881,1039 901,1025 922,1006 886,937 835,863 770,784 769,783 710,716 594,584 L 774,223 C 774,196 753,168 711,139 L 727,119 C 717,90 699,76 672,76 641,76 570,178 457,381 L 164,-76 C 142,-110 111,-127 72,-127 30,-127 9,-110 8,-76 1,-67 -2,-52 -2,-32 -2,-23 -1,-13 0,-2 Z"/>
  </g>
  <g id="bullet-char-template-10004" transform="scale(0.00048828125,-0.00048828125)">
   <path d="M 285,-33 C 182,-33 111,30 74,156 52,228 41,333 41,471 41,549 55,616 82,672 116,743 169,778 240,778 293,778 328,747 346,684 L 369,508 C 377,444 397,411 428,410 L 1163,1116 C 1174,1127 1196,1133 1229,1133 1271,1133 1292,1118 1292,1087 L 1292,965 C 1292,929 1282,901 1262,881 L 442,47 C 390,-6 338,-33 285,-33 Z"/>
  </g>
  <g id="bullet-char-template-9679" transform="scale(0.00048828125,-0.00048828125)">
   <path d="M 813,0 C 632,0 489,54 383,161 276,268 223,411 223,592 223,773 276,916 383,1023 489,1130 632,1184 813,1184 992,1184 1136,1130 1245,1023 1353,916 1407,772 1407,592 1407,412 1353,268 1245,161 1136,54 992,0 813,0 Z"/>
  </g>
  <g id="bullet-char-template-8226" transform="scale(0.00048828125,-0.00048828125)">
   <path d="M 346,457 C 273,457 209,483 155,535 101,586 74,649 74,723 74,796 101,859 155,911 209,963 273,989 346,989 419,989 480,963 531,910 582,859 608,796 608,723 608,648 583,586 532,535 482,483 420,457 346,457 Z"/>
  </g>
  <g id="bullet-char-template-8211" transform="scale(0.00048828125,-0.00048828125)">
   <path d="M -4,459 L 1135,459 1135,606 -4,606 -4,459 Z"/>
  </g>
  <g id="bullet-char-template-61548" transform="scale(0.00048828125,-0.00048828125)">
   <path d="M 173,740 C 173,903 231,1043 346,1159 462,1274 601,1332 765,1332 928,1332 1067,1274 1183,1159 1299,1043 1357,903 1357,740 1357,577 1299,437 1183,322 1067,206 928,148 765,148 601,148 462,206 346,322 231,437 173,577 173,740 Z"/>
  </g>
 </defs>
 <g class="Page">
  <g class="com.sun.star.drawing.CustomShape">
   <g id="id3">
    <rect class="BoundingBox" stroke="none" fill="none" x="12000" y="7005" width="741" height="2401"/>
    <path fill="rgb(81,142,220)" stroke="none" d="M 12370,9405 L 12000,9405 12000,7005 12740,7005 12740,9405 12370,9405 Z"/>
   </g>
  </g>
  <g class="TextShape">
   <g id="id4">
    <rect class="BoundingBox" stroke="none" fill="none" x="12005" y="7005" width="736" height="2401"/>
    <text class="SVGTextShape" transform="rotate(-90 12521 8620)"><tspan class="TextParagraph" font-family="Cantarell" font-size="388px" font-weight="400"><tspan class="TextPosition" x="12521" y="8620"><tspan fill="rgb(250,250,250)" stroke="none" style="white-space: pre">Hold</tspan></tspan></tspan></text>
   </g>
  </g>
 </g>
</svg>